{
  "mainMenu": {
    "item1": {
      "title": "Массажные накидки",
      "submenu": false
    },
    "item2": {
      "title": "Массажные подушки",
      "submenu": false
    },
    "item3": {
      "title": "Массажеры для ног",
      "submenu": false
    },
    "item4": {
      "title": "Ручные массажеры",
      "submenu": false
    },
    "item5": {
      "title": "Массажеры для ванной",
      "submenu": false
    }
  },
  "paramMenu": {
    "item1": {
      "title": "Область применения",
      "submenu": {
        "subitem1": {
          "title": "Для тела",
          "count": "46"
        },
        "subitem2": {
          "title": "Для шеи",
          "count": "22"
        },
        "subitem3": {
          "title": "Для спины",
          "count": "42"
        },
        "subitem4": {
          "title": "Для плеч",
          "count": "33"
        },
        "subitem5": {
          "title": "Для рук",
          "count": "11"
        },
        "subitem6": {
          "title": "Для ног",
          "count": "5"
        },
        "subitem7": {
          "title": "Для поясницы",
          "count": "15"
        },
        "subitem8": {
          "title": "Для ягодиц и бедер",
          "count": "39"
        },
        "subitem9": {
          "title": "Точечная",
          "count": "13"
        }
      }
    },
    "item2": {
      "title": "Вид массажера",
      "submenu": {
        "subitem1": {
          "title": "Для тела",
          "count": "46"
        },
        "subitem2": {
          "title": "Для шеи",
          "count": "22"
        },
        "subitem3": {
          "title": "Для спины",
          "count": "42"
        },
        "subitem4": {
          "title": "Для плеч",
          "count": "33"
        },
        "subitem5": {
          "title": "Для рук",
          "count": "11"
        },
        "subitem6": {
          "title": "Для ног",
          "count": "5"
        },
        "subitem7": {
          "title": "Для поясницы",
          "count": "15"
        },
        "subitem8": {
          "title": "Для ягодиц и бедер",
          "count": "39"
        },
        "subitem9": {
          "title": "Точечная",
          "count": "13"
        }
      }
    },
    "item3": {
      "title": "Прогрев",
      "submenu": {
        "subitem1": {
          "title": "Для тела",
          "count": "46"
        },
        "subitem2": {
          "title": "Для шеи",
          "count": "22"
        },
        "subitem3": {
          "title": "Для спины",
          "count": "42"
        },
        "subitem4": {
          "title": "Для плеч",
          "count": "33"
        },
        "subitem5": {
          "title": "Для рук",
          "count": "11"
        },
        "subitem6": {
          "title": "Для ног",
          "count": "5"
        },
        "subitem7": {
          "title": "Для поясницы",
          "count": "15"
        },
        "subitem8": {
          "title": "Для ягодиц и бедер",
          "count": "39"
        },
        "subitem9": {
          "title": "Точечная",
          "count": "13"
        }
      }
    },
    "item4": {
      "title": "Дистанционное управление",
      "submenu": {
        "subitem1": {
          "title": "Для тела",
          "count": "46"
        },
        "subitem2": {
          "title": "Для шеи",
          "count": "22"
        },
        "subitem3": {
          "title": "Для спины",
          "count": "42"
        },
        "subitem4": {
          "title": "Для плеч",
          "count": "33"
        },
        "subitem5": {
          "title": "Для рук",
          "count": "11"
        },
        "subitem6": {
          "title": "Для ног",
          "count": "5"
        },
        "subitem7": {
          "title": "Для поясницы",
          "count": "15"
        },
        "subitem8": {
          "title": "Для ягодиц и бедер",
          "count": "39"
        },
        "subitem9": {
          "title": "Точечная",
          "count": "13"
        }
      }
    },
    "item5": {
      "title": "Педикюр",
      "submenu": {
        "subitem1": {
          "title": "Для тела",
          "count": "46"
        },
        "subitem2": {
          "title": "Для шеи",
          "count": "22"
        },
        "subitem3": {
          "title": "Для спины",
          "count": "42"
        },
        "subitem4": {
          "title": "Для плеч",
          "count": "33"
        },
        "subitem5": {
          "title": "Для рук",
          "count": "11"
        },
        "subitem6": {
          "title": "Для ног",
          "count": "5"
        },
        "subitem7": {
          "title": "Для поясницы",
          "count": "15"
        },
        "subitem8": {
          "title": "Для ягодиц и бедер",
          "count": "39"
        },
        "subitem9": {
          "title": "Точечная",
          "count": "13"
        }
      }
    }
  }
}